23_sdram_control/sdram_control.sim/sim_1/behav/xsim/simulate.log
Vivado Simulator 2020.2
Time resolution is 1 ps
sdram_control_tb.sdram_model : at time  202055.0 ns AREF : Auto Refresh
sdram_control_tb.sdram_model : at time  202155.0 ns AREF : Auto Refresh
sdram_control_tb.sdram_model : at time  202255.0 ns LMR  : Load Mode Register
sdram_control_tb.sdram_model :                             CAS Latency      = 2
sdram_control_tb.sdram_model :                             Burst Length     = 8
sdram_control_tb.sdram_model :                             Burst Type       = Sequential
sdram_control_tb.sdram_model :                             Write Burst Mode = Programmed Burst Length
sdram_control_tb.sdram_model : at time  204265.0 ns ACT  : Bank = 2 Row =    0
sdram_control_tb.sdram_model : at time  204295.0 ns WRITE: Bank = 2 Row =    0, Col =   0, Data = 0000
sdram_control_tb.sdram_model : at time  204305.0 ns WRITE: Bank = 2 Row =    0, Col =   1, Data = 0001
sdram_control_tb.sdram_model : at time  204315.0 ns WRITE: Bank = 2 Row =    0, Col =   2, Data = 0002
sdram_control_tb.sdram_model : at time  204325.0 ns WRITE: Bank = 2 Row =    0, Col =   3, Data = 0003
sdram_control_tb.sdram_model : at time  204335.0 ns WRITE: Bank = 2 Row =    0, Col =   4, Data = 0004
sdram_control_tb.sdram_model : at time  204345.0 ns WRITE: Bank = 2 Row =    0, Col =   5, Data = 0005
sdram_control_tb.sdram_model : at time  204355.0 ns WRITE: Bank = 2 Row =    0, Col =   6, Data = 0006
sdram_control_tb.sdram_model : at time  204365.0 ns WRITE: Bank = 2 Row =    0, Col =   7, Data = 0007
sdram_control_tb.sdram_model : at time  209275.0 ns ACT  : Bank = 2 Row =    0
sdram_control_tb.sdram_model : at time  209305.0 ns WRITE: Bank = 2 Row =    0, Col =   8, Data = 0008
sdram_control_tb.sdram_model : at time  209315.0 ns WRITE: Bank = 2 Row =    0, Col =   9, Data = 0009
sdram_control_tb.sdram_model : at time  209325.0 ns WRITE: Bank = 2 Row =    0, Col =  10, Data = 000a
sdram_control_tb.sdram_model : at time  209335.0 ns WRITE: Bank = 2 Row =    0, Col =  11, Data = 000b
sdram_control_tb.sdram_model : at time  209345.0 ns WRITE: Bank = 2 Row =    0, Col =  12, Data = 000c
sdram_control_tb.sdram_model : at time  209355.0 ns WRITE: Bank = 2 Row =    0, Col =  13, Data = 000d
sdram_control_tb.sdram_model : at time  209365.0 ns WRITE: Bank = 2 Row =    0, Col =  14, Data = 000e
sdram_control_tb.sdram_model : at time  209375.0 ns WRITE: Bank = 2 Row =    0, Col =  15, Data = 000f
sdram_control_tb.sdram_model : at time  214285.0 ns ACT  : Bank = 2 Row =    0
sdram_control_tb.sdram_model : at time  214315.0 ns WRITE: Bank = 2 Row =    0, Col =  16, Data = 0010
sdram_control_tb.sdram_model : at time  214325.0 ns WRITE: Bank = 2 Row =    0, Col =  17, Data = 0011
sdram_control_tb.sdram_model : at time  214335.0 ns WRITE: Bank = 2 Row =    0, Col =  18, Data = 0012
sdram_control_tb.sdram_model : at time  214345.0 ns WRITE: Bank = 2 Row =    0, Col =  19, Data = 0013
sdram_control_tb.sdram_model : at time  214355.0 ns WRITE: Bank = 2 Row =    0, Col =  20, Data = 0014
sdram_control_tb.sdram_model : at time  214365.0 ns WRITE: Bank = 2 Row =    0, Col =  21, Data = 0015
sdram_control_tb.sdram_model : at time  214375.0 ns WRITE: Bank = 2 Row =    0, Col =  22, Data = 0016
sdram_control_tb.sdram_model : at time  214385.0 ns WRITE: Bank = 2 Row =    0, Col =  23, Data = 0017
sdram_control_tb.sdram_model : at time  217905.0 ns AREF : Auto Refresh
sdram_control_tb.sdram_model : at time  218005.0 ns AREF : Auto Refresh
sdram_control_tb.sdram_model : at time  219295.0 ns ACT  : Bank = 2 Row =    0
sdram_control_tb.sdram_model : at time  219325.0 ns WRITE: Bank = 2 Row =    0, Col =  24, Data = 0018
sdram_control_tb.sdram_model : at time  219335.0 ns WRITE: Bank = 2 Row =    0, Col =  25, Data = 0019
sdram_control_tb.sdram_model : at time  219345.0 ns WRITE: Bank = 2 Row =    0, Col =  26, Data = 001a
sdram_control_tb.sdram_model : at time  219355.0 ns WRITE: Bank = 2 Row =    0, Col =  27, Data = 001b
sdram_control_tb.sdram_model : at time  219365.0 ns WRITE: Bank = 2 Row =    0, Col =  28, Data = 001c
sdram_control_tb.sdram_model : at time  219375.0 ns WRITE: Bank = 2 Row =    0, Col =  29, Data = 001d
sdram_control_tb.sdram_model : at time  219385.0 ns WRITE: Bank = 2 Row =    0, Col =  30, Data = 001e
sdram_control_tb.sdram_model : at time  219395.0 ns WRITE: Bank = 2 Row =    0, Col =  31, Data = 001f
sdram_control_tb.sdram_model : at time  224305.0 ns ACT  : Bank = 2 Row =    0
sdram_control_tb.sdram_model : at time  224335.0 ns WRITE: Bank = 2 Row =    0, Col =  32, Data = 0020
sdram_control_tb.sdram_model : at time  224345.0 ns WRITE: Bank = 2 Row =    0, Col =  33, Data = 0021
sdram_control_tb.sdram_model : at time  224355.0 ns WRITE: Bank = 2 Row =    0, Col =  34, Data = 0022
sdram_control_tb.sdram_model : at time  224365.0 ns WRITE: Bank = 2 Row =    0, Col =  35, Data = 0023
sdram_control_tb.sdram_model : at time  224375.0 ns WRITE: Bank = 2 Row =    0, Col =  36, Data = 0024
sdram_control_tb.sdram_model : at time  224385.0 ns WRITE: Bank = 2 Row =    0, Col =  37, Data = 0025
sdram_control_tb.sdram_model : at time  224395.0 ns WRITE: Bank = 2 Row =    0, Col =  38, Data = 0026
sdram_control_tb.sdram_model : at time  224405.0 ns WRITE: Bank = 2 Row =    0, Col =  39, Data = 0027
sdram_control_tb.sdram_model : at time  229315.0 ns ACT  : Bank = 2 Row =    0
sdram_control_tb.sdram_model : at time  229345.0 ns WRITE: Bank = 2 Row =    0, Col =  40, Data = 0028
sdram_control_tb.sdram_model : at time  229355.0 ns WRITE: Bank = 2 Row =    0, Col =  41, Data = 0029
sdram_control_tb.sdram_model : at time  229365.0 ns WRITE: Bank = 2 Row =    0, Col =  42, Data = 002a
sdram_control_tb.sdram_model : at time  229375.0 ns WRITE: Bank = 2 Row =    0, Col =  43, Data = 002b
sdram_control_tb.sdram_model : at time  229385.0 ns WRITE: Bank = 2 Row =    0, Col =  44, Data = 002c
sdram_control_tb.sdram_model : at time  229395.0 ns WRITE: Bank = 2 Row =    0, Col =  45, Data = 002d
sdram_control_tb.sdram_model : at time  229405.0 ns WRITE: Bank = 2 Row =    0, Col =  46, Data = 002e
sdram_control_tb.sdram_model : at time  229415.0 ns WRITE: Bank = 2 Row =    0, Col =  47, Data = 002f
sdram_control_tb.sdram_model : at time  233505.0 ns AREF : Auto Refresh
sdram_control_tb.sdram_model : at time  233605.0 ns AREF : Auto Refresh
sdram_control_tb.sdram_model : at time  234325.0 ns ACT  : Bank = 2 Row =    0
sdram_control_tb.sdram_model : at time  234355.0 ns WRITE: Bank = 2 Row =    0, Col =  48, Data = 0030
sdram_control_tb.sdram_model : at time  234365.0 ns WRITE: Bank = 2 Row =    0, Col =  49, Data = 0031
sdram_control_tb.sdram_model : at time  234375.0 ns WRITE: Bank = 2 Row =    0, Col =  50, Data = 0032
sdram_control_tb.sdram_model : at time  234385.0 ns WRITE: Bank = 2 Row =    0, Col =  51, Data = 0033
sdram_control_tb.sdram_model : at time  234395.0 ns WRITE: Bank = 2 Row =    0, Col =  52, Data = 0034
sdram_control_tb.sdram_model : at time  234405.0 ns WRITE: Bank = 2 Row =    0, Col =  53, Data = 0035
sdram_control_tb.sdram_model : at time  234415.0 ns WRITE: Bank = 2 Row =    0, Col =  54, Data = 0036
sdram_control_tb.sdram_model : at time  234425.0 ns WRITE: Bank = 2 Row =    0, Col =  55, Data = 0037
sdram_control_tb.sdram_model : at time  239335.0 ns ACT  : Bank = 2 Row =    0
sdram_control_tb.sdram_model : at time  239365.0 ns WRITE: Bank = 2 Row =    0, Col =  56, Data = 0038
sdram_control_tb.sdram_model : at time  239375.0 ns WRITE: Bank = 2 Row =    0, Col =  57, Data = 0039
sdram_control_tb.sdram_model : at time  239385.0 ns WRITE: Bank = 2 Row =    0, Col =  58, Data = 003a
sdram_control_tb.sdram_model : at time  239395.0 ns WRITE: Bank = 2 Row =    0, Col =  59, Data = 003b
sdram_control_tb.sdram_model : at time  239405.0 ns WRITE: Bank = 2 Row =    0, Col =  60, Data = 003c
sdram_control_tb.sdram_model : at time  239415.0 ns WRITE: Bank = 2 Row =    0, Col =  61, Data = 003d
sdram_control_tb.sdram_model : at time  239425.0 ns WRITE: Bank = 2 Row =    0, Col =  62, Data = 003e
sdram_control_tb.sdram_model : at time  239435.0 ns WRITE: Bank = 2 Row =    0, Col =  63, Data = 003f
sdram_control_tb.sdram_model : at time  244345.0 ns ACT  : Bank = 2 Row =    0
sdram_control_tb.sdram_model : at time  244375.0 ns WRITE: Bank = 2 Row =    0, Col =  64, Data = 0040
sdram_control_tb.sdram_model : at time  244385.0 ns WRITE: Bank = 2 Row =    0, Col =  65, Data = 0041
sdram_control_tb.sdram_model : at time  244395.0 ns WRITE: Bank = 2 Row =    0, Col =  66, Data = 0042
sdram_control_tb.sdram_model : at time  244405.0 ns WRITE: Bank = 2 Row =    0, Col =  67, Data = 0043
sdram_control_tb.sdram_model : at time  244415.0 ns WRITE: Bank = 2 Row =    0, Col =  68, Data = 0044
sdram_control_tb.sdram_model : at time  244425.0 ns WRITE: Bank = 2 Row =    0, Col =  69, Data = 0045
sdram_control_tb.sdram_model : at time  244435.0 ns WRITE: Bank = 2 Row =    0, Col =  70, Data = 0046
sdram_control_tb.sdram_model : at time  244445.0 ns WRITE: Bank = 2 Row =    0, Col =  71, Data = 0047
sdram_control_tb.sdram_model : at time  249105.0 ns AREF : Auto Refresh
sdram_control_tb.sdram_model : at time  249205.0 ns AREF : Auto Refresh
sdram_control_tb.sdram_model : at time  249355.0 ns ACT  : Bank = 2 Row =    0
sdram_control_tb.sdram_model : at time  249385.0 ns WRITE: Bank = 2 Row =    0, Col =  72, Data = 0048
sdram_control_tb.sdram_model : at time  249395.0 ns WRITE: Bank = 2 Row =    0, Col =  73, Data = 0049
sdram_control_tb.sdram_model : at time  249405.0 ns WRITE: Bank = 2 Row =    0, Col =  74, Data = 004a
sdram_control_tb.sdram_model : at time  249415.0 ns WRITE: Bank = 2 Row =    0, Col =  75, Data = 004b
sdram_control_tb.sdram_model : at time  249425.0 ns WRITE: Bank = 2 Row =    0, Col =  76, Data = 004c
sdram_control_tb.sdram_model : at time  249435.0 ns WRITE: Bank = 2 Row =    0, Col =  77, Data = 004d
sdram_control_tb.sdram_model : at time  249445.0 ns WRITE: Bank = 2 Row =    0, Col =  78, Data = 004e
sdram_control_tb.sdram_model : at time  249455.0 ns WRITE: Bank = 2 Row =    0, Col =  79, Data = 004f
sdram_control_tb.sdram_model : at time  254365.0 ns ACT  : Bank = 2 Row =    0
sdram_control_tb.sdram_model : at time  254395.0 ns WRITE: Bank = 2 Row =    0, Col =  80, Data = 0050
sdram_control_tb.sdram_model : at time  254405.0 ns WRITE: Bank = 2 Row =    0, Col =  81, Data = 0051
sdram_control_tb.sdram_model : at time  254415.0 ns WRITE: Bank = 2 Row =    0, Col =  82, Data = 0052
sdram_control_tb.sdram_model : at time  254425.0 ns WRITE: Bank = 2 Row =    0, Col =  83, Data = 0053
sdram_control_tb.sdram_model : at time  254435.0 ns WRITE: Bank = 2 Row =    0, Col =  84, Data = 0054
sdram_control_tb.sdram_model : at time  254445.0 ns WRITE: Bank = 2 Row =    0, Col =  85, Data = 0055
sdram_control_tb.sdram_model : at time  254455.0 ns WRITE: Bank = 2 Row =    0, Col =  86, Data = 0056
sdram_control_tb.sdram_model : at time  254465.0 ns WRITE: Bank = 2 Row =    0, Col =  87, Data = 0057
sdram_control_tb.sdram_model : at time  259375.0 ns ACT  : Bank = 2 Row =    0
sdram_control_tb.sdram_model : at time  259405.0 ns WRITE: Bank = 2 Row =    0, Col =  88, Data = 0058
sdram_control_tb.sdram_model : at time  259415.0 ns WRITE: Bank = 2 Row =    0, Col =  89, Data = 0059
sdram_control_tb.sdram_model : at time  259425.0 ns WRITE: Bank = 2 Row =    0, Col =  90, Data = 005a
sdram_control_tb.sdram_model : at time  259435.0 ns WRITE: Bank = 2 Row =    0, Col =  91, Data = 005b
sdram_control_tb.sdram_model : at time  259445.0 ns WRITE: Bank = 2 Row =    0, Col =  92, Data = 005c
sdram_control_tb.sdram_model : at time  259455.0 ns WRITE: Bank = 2 Row =    0, Col =  93, Data = 005d
sdram_control_tb.sdram_model : at time  259465.0 ns WRITE: Bank = 2 Row =    0, Col =  94, Data = 005e
sdram_control_tb.sdram_model : at time  259475.0 ns WRITE: Bank = 2 Row =    0, Col =  95, Data = 005f
sdram_control_tb.sdram_model : at time  264385.0 ns ACT  : Bank = 2 Row =    0
sdram_control_tb.sdram_model : at time  264415.0 ns WRITE: Bank = 2 Row =    0, Col =  96, Data = 0060
sdram_control_tb.sdram_model : at time  264425.0 ns WRITE: Bank = 2 Row =    0, Col =  97, Data = 0061
sdram_control_tb.sdram_model : at time  264435.0 ns WRITE: Bank = 2 Row =    0, Col =  98, Data = 0062
sdram_control_tb.sdram_model : at time  264445.0 ns WRITE: Bank = 2 Row =    0, Col =  99, Data = 0063
sdram_control_tb.sdram_model : at time  264455.0 ns WRITE: Bank = 2 Row =    0, Col = 100, Data = 0064
sdram_control_tb.sdram_model : at time  264465.0 ns WRITE: Bank = 2 Row =    0, Col = 101, Data = 0065
sdram_control_tb.sdram_model : at time  264475.0 ns WRITE: Bank = 2 Row =    0, Col = 102, Data = 0066
sdram_control_tb.sdram_model : at time  264485.0 ns WRITE: Bank = 2 Row =    0, Col = 103, Data = 0067
sdram_control_tb.sdram_model : at time  264705.0 ns AREF : Auto Refresh
sdram_control_tb.sdram_model : at time  264805.0 ns AREF : Auto Refresh
sdram_control_tb.sdram_model : at time  269395.0 ns ACT  : Bank = 2 Row =    0
sdram_control_tb.sdram_model : at time  269425.0 ns WRITE: Bank = 2 Row =    0, Col = 104, Data = 0068
sdram_control_tb.sdram_model : at time  269435.0 ns WRITE: Bank = 2 Row =    0, Col = 105, Data = 0069
sdram_control_tb.sdram_model : at time  269445.0 ns WRITE: Bank = 2 Row =    0, Col = 106, Data = 006a
sdram_control_tb.sdram_model : at time  269455.0 ns WRITE: Bank = 2 Row =    0, Col = 107, Data = 006b
sdram_control_tb.sdram_model : at time  269465.0 ns WRITE: Bank = 2 Row =    0, Col = 108, Data = 006c
sdram_control_tb.sdram_model : at time  269475.0 ns WRITE: Bank = 2 Row =    0, Col = 109, Data = 006d
sdram_control_tb.sdram_model : at time  269485.0 ns WRITE: Bank = 2 Row =    0, Col = 110, Data = 006e
sdram_control_tb.sdram_model : at time  269495.0 ns WRITE: Bank = 2 Row =    0, Col = 111, Data = 006f
sdram_control_tb.sdram_model : at time  274405.0 ns ACT  : Bank = 2 Row =    0
sdram_control_tb.sdram_model : at time  274435.0 ns WRITE: Bank = 2 Row =    0, Col = 112, Data = 0070
sdram_control_tb.sdram_model : at time  274445.0 ns WRITE: Bank = 2 Row =    0, Col = 113, Data = 0071
sdram_control_tb.sdram_model : at time  274455.0 ns WRITE: Bank = 2 Row =    0, Col = 114, Data = 0072
sdram_control_tb.sdram_model : at time  274465.0 ns WRITE: Bank = 2 Row =    0, Col = 115, Data = 0073
sdram_control_tb.sdram_model : at time  274475.0 ns WRITE: Bank = 2 Row =    0, Col = 116, Data = 0074
sdram_control_tb.sdram_model : at time  274485.0 ns WRITE: Bank = 2 Row =    0, Col = 117, Data = 0075
sdram_control_tb.sdram_model : at time  274495.0 ns WRITE: Bank = 2 Row =    0, Col = 118, Data = 0076
sdram_control_tb.sdram_model : at time  274505.0 ns WRITE: Bank = 2 Row =    0, Col = 119, Data = 0077
sdram_control_tb.sdram_model : at time  279415.0 ns ACT  : Bank = 2 Row =    0
sdram_control_tb.sdram_model : at time  279445.0 ns WRITE: Bank = 2 Row =    0, Col = 120, Data = 0078
sdram_control_tb.sdram_model : at time  279455.0 ns WRITE: Bank = 2 Row =    0, Col = 121, Data = 0079
sdram_control_tb.sdram_model : at time  279465.0 ns WRITE: Bank = 2 Row =    0, Col = 122, Data = 007a
sdram_control_tb.sdram_model : at time  279475.0 ns WRITE: Bank = 2 Row =    0, Col = 123, Data = 007b
sdram_control_tb.sdram_model : at time  279485.0 ns WRITE: Bank = 2 Row =    0, Col = 124, Data = 007c
sdram_control_tb.sdram_model : at time  279495.0 ns WRITE: Bank = 2 Row =    0, Col = 125, Data = 007d
sdram_control_tb.sdram_model : at time  279505.0 ns WRITE: Bank = 2 Row =    0, Col = 126, Data = 007e
sdram_control_tb.sdram_model : at time  279515.0 ns WRITE: Bank = 2 Row =    0, Col = 127, Data = 007f
sdram_control_tb.sdram_model : at time  280305.0 ns AREF : Auto Refresh
sdram_control_tb.sdram_model : at time  280405.0 ns AREF : Auto Refresh
sdram_control_tb.sdram_model : at time  284425.0 ns ACT  : Bank = 2 Row =    0
sdram_control_tb.sdram_model : at time  284455.0 ns WRITE: Bank = 2 Row =    0, Col = 128, Data = 0080
sdram_control_tb.sdram_model : at time  284465.0 ns WRITE: Bank = 2 Row =    0, Col = 129, Data = 0081
sdram_control_tb.sdram_model : at time  284475.0 ns WRITE: Bank = 2 Row =    0, Col = 130, Data = 0082
sdram_control_tb.sdram_model : at time  284485.0 ns WRITE: Bank = 2 Row =    0, Col = 131, Data = 0083
sdram_control_tb.sdram_model : at time  284495.0 ns WRITE: Bank = 2 Row =    0, Col = 132, Data = 0084
sdram_control_tb.sdram_model : at time  284505.0 ns WRITE: Bank = 2 Row =    0, Col = 133, Data = 0085
sdram_control_tb.sdram_model : at time  284515.0 ns WRITE: Bank = 2 Row =    0, Col = 134, Data = 0086
sdram_control_tb.sdram_model : at time  284525.0 ns WRITE: Bank = 2 Row =    0, Col = 135, Data = 0087
sdram_control_tb.sdram_model : at time  289435.0 ns ACT  : Bank = 2 Row =    0
sdram_control_tb.sdram_model : at time  289465.0 ns WRITE: Bank = 2 Row =    0, Col = 136, Data = 0088
sdram_control_tb.sdram_model : at time  289475.0 ns WRITE: Bank = 2 Row =    0, Col = 137, Data = 0089
sdram_control_tb.sdram_model : at time  289485.0 ns WRITE: Bank = 2 Row =    0, Col = 138, Data = 008a
sdram_control_tb.sdram_model : at time  289495.0 ns WRITE: Bank = 2 Row =    0, Col = 139, Data = 008b
sdram_control_tb.sdram_model : at time  289505.0 ns WRITE: Bank = 2 Row =    0, Col = 140, Data = 008c
sdram_control_tb.sdram_model : at time  289515.0 ns WRITE: Bank = 2 Row =    0, Col = 141, Data = 008d
sdram_control_tb.sdram_model : at time  289525.0 ns WRITE: Bank = 2 Row =    0, Col = 142, Data = 008e
sdram_control_tb.sdram_model : at time  289535.0 ns WRITE: Bank = 2 Row =    0, Col = 143, Data = 008f
sdram_control_tb.sdram_model : at time  294445.0 ns ACT  : Bank = 2 Row =    0
sdram_control_tb.sdram_model : at time  294475.0 ns WRITE: Bank = 2 Row =    0, Col = 144, Data = 0090
sdram_control_tb.sdram_model : at time  294485.0 ns WRITE: Bank = 2 Row =    0, Col = 145, Data = 0091
sdram_control_tb.sdram_model : at time  294495.0 ns WRITE: Bank = 2 Row =    0, Col = 146, Data = 0092
sdram_control_tb.sdram_model : at time  294505.0 ns WRITE: Bank = 2 Row =    0, Col = 147, Data = 0093
sdram_control_tb.sdram_model : at time  294515.0 ns WRITE: Bank = 2 Row =    0, Col = 148, Data = 0094
sdram_control_tb.sdram_model : at time  294525.0 ns WRITE: Bank = 2 Row =    0, Col = 149, Data = 0095
sdram_control_tb.sdram_model : at time  294535.0 ns WRITE: Bank = 2 Row =    0, Col = 150, Data = 0096
sdram_control_tb.sdram_model : at time  294545.0 ns WRITE: Bank = 2 Row =    0, Col = 151, Data = 0097
sdram_control_tb.sdram_model : at time  295905.0 ns AREF : Auto Refresh
sdram_control_tb.sdram_model : at time  296005.0 ns AREF : Auto Refresh
sdram_control_tb.sdram_model : at time  299455.0 ns ACT  : Bank = 2 Row =    0
sdram_control_tb.sdram_model : at time  299485.0 ns WRITE: Bank = 2 Row =    0, Col = 152, Data = 0098
sdram_control_tb.sdram_model : at time  299495.0 ns WRITE: Bank = 2 Row =    0, Col = 153, Data = 0099
sdram_control_tb.sdram_model : at time  299505.0 ns WRITE: Bank = 2 Row =    0, Col = 154, Data = 009a
sdram_control_tb.sdram_model : at time  299515.0 ns WRITE: Bank = 2 Row =    0, Col = 155, Data = 009b
sdram_control_tb.sdram_model : at time  299525.0 ns WRITE: Bank = 2 Row =    0, Col = 156, Data = 009c
sdram_control_tb.sdram_model : at time  299535.0 ns WRITE: Bank = 2 Row =    0, Col = 157, Data = 009d
sdram_control_tb.sdram_model : at time  299545.0 ns WRITE: Bank = 2 Row =    0, Col = 158, Data = 009e
sdram_control_tb.sdram_model : at time  299555.0 ns WRITE: Bank = 2 Row =    0, Col = 159, Data = 009f
sdram_control_tb.sdram_model : at time  304465.0 ns ACT  : Bank = 2 Row =    0
sdram_control_tb.sdram_model : at time  304495.0 ns WRITE: Bank = 2 Row =    0, Col = 160, Data = 00a0
sdram_control_tb.sdram_model : at time  304505.0 ns WRITE: Bank = 2 Row =    0, Col = 161, Data = 00a1
sdram_control_tb.sdram_model : at time  304515.0 ns WRITE: Bank = 2 Row =    0, Col = 162, Data = 00a2
sdram_control_tb.sdram_model : at time  304525.0 ns WRITE: Bank = 2 Row =    0, Col = 163, Data = 00a3
sdram_control_tb.sdram_model : at time  304535.0 ns WRITE: Bank = 2 Row =    0, Col = 164, Data = 00a4
sdram_control_tb.sdram_model : at time  304545.0 ns WRITE: Bank = 2 Row =    0, Col = 165, Data = 00a5
sdram_control_tb.sdram_model : at time  304555.0 ns WRITE: Bank = 2 Row =    0, Col = 166, Data = 00a6
sdram_control_tb.sdram_model : at time  304565.0 ns WRITE: Bank = 2 Row =    0, Col = 167, Data = 00a7
sdram_control_tb.sdram_model : at time  309475.0 ns ACT  : Bank = 2 Row =    0
sdram_control_tb.sdram_model : at time  309505.0 ns WRITE: Bank = 2 Row =    0, Col = 168, Data = 00a8
sdram_control_tb.sdram_model : at time  309515.0 ns WRITE: Bank = 2 Row =    0, Col = 169, Data = 00a9
sdram_control_tb.sdram_model : at time  309525.0 ns WRITE: Bank = 2 Row =    0, Col = 170, Data = 00aa
sdram_control_tb.sdram_model : at time  309535.0 ns WRITE: Bank = 2 Row =    0, Col = 171, Data = 00ab
sdram_control_tb.sdram_model : at time  309545.0 ns WRITE: Bank = 2 Row =    0, Col = 172, Data = 00ac
sdram_control_tb.sdram_model : at time  309555.0 ns WRITE: Bank = 2 Row =    0, Col = 173, Data = 00ad
sdram_control_tb.sdram_model : at time  309565.0 ns WRITE: Bank = 2 Row =    0, Col = 174, Data = 00ae
sdram_control_tb.sdram_model : at time  309575.0 ns WRITE: Bank = 2 Row =    0, Col = 175, Data = 00af
sdram_control_tb.sdram_model : at time  311505.0 ns AREF : Auto Refresh
sdram_control_tb.sdram_model : at time  311605.0 ns AREF : Auto Refresh
sdram_control_tb.sdram_model : at time  314485.0 ns ACT  : Bank = 2 Row =    0
sdram_control_tb.sdram_model : at time  314515.0 ns WRITE: Bank = 2 Row =    0, Col = 176, Data = 00b0
sdram_control_tb.sdram_model : at time  314525.0 ns WRITE: Bank = 2 Row =    0, Col = 177, Data = 00b1
sdram_control_tb.sdram_model : at time  314535.0 ns WRITE: Bank = 2 Row =    0, Col = 178, Data = 00b2
sdram_control_tb.sdram_model : at time  314545.0 ns WRITE: Bank = 2 Row =    0, Col = 179, Data = 00b3
sdram_control_tb.sdram_model : at time  314555.0 ns WRITE: Bank = 2 Row =    0, Col = 180, Data = 00b4
sdram_control_tb.sdram_model : at time  314565.0 ns WRITE: Bank = 2 Row =    0, Col = 181, Data = 00b5
sdram_control_tb.sdram_model : at time  314575.0 ns WRITE: Bank = 2 Row =    0, Col = 182, Data = 00b6
sdram_control_tb.sdram_model : at time  314585.0 ns WRITE: Bank = 2 Row =    0, Col = 183, Data = 00b7
sdram_control_tb.sdram_model : at time  319495.0 ns ACT  : Bank = 2 Row =    0
sdram_control_tb.sdram_model : at time  319525.0 ns WRITE: Bank = 2 Row =    0, Col = 184, Data = 00b8
sdram_control_tb.sdram_model : at time  319535.0 ns WRITE: Bank = 2 Row =    0, Col = 185, Data = 00b9
sdram_control_tb.sdram_model : at time  319545.0 ns WRITE: Bank = 2 Row =    0, Col = 186, Data = 00ba
sdram_control_tb.sdram_model : at time  319555.0 ns WRITE: Bank = 2 Row =    0, Col = 187, Data = 00bb
sdram_control_tb.sdram_model : at time  319565.0 ns WRITE: Bank = 2 Row =    0, Col = 188, Data = 00bc
sdram_control_tb.sdram_model : at time  319575.0 ns WRITE: Bank = 2 Row =    0, Col = 189, Data = 00bd
sdram_control_tb.sdram_model : at time  319585.0 ns WRITE: Bank = 2 Row =    0, Col = 190, Data = 00be
sdram_control_tb.sdram_model : at time  319595.0 ns WRITE: Bank = 2 Row =    0, Col = 191, Data = 00bf
sdram_control_tb.sdram_model : at time  324505.0 ns ACT  : Bank = 2 Row =    0
sdram_control_tb.sdram_model : at time  324535.0 ns WRITE: Bank = 2 Row =    0, Col = 192, Data = 00c0
sdram_control_tb.sdram_model : at time  324545.0 ns WRITE: Bank = 2 Row =    0, Col = 193, Data = 00c1
sdram_control_tb.sdram_model : at time  324555.0 ns WRITE: Bank = 2 Row =    0, Col = 194, Data = 00c2
sdram_control_tb.sdram_model : at time  324565.0 ns WRITE: Bank = 2 Row =    0, Col = 195, Data = 00c3
sdram_control_tb.sdram_model : at time  324575.0 ns WRITE: Bank = 2 Row =    0, Col = 196, Data = 00c4
sdram_control_tb.sdram_model : at time  324585.0 ns WRITE: Bank = 2 Row =    0, Col = 197, Data = 00c5
sdram_control_tb.sdram_model : at time  324595.0 ns WRITE: Bank = 2 Row =    0, Col = 198, Data = 00c6
sdram_control_tb.sdram_model : at time  324605.0 ns WRITE: Bank = 2 Row =    0, Col = 199, Data = 00c7
sdram_control_tb.sdram_model : at time  327105.0 ns AREF : Auto Refresh
sdram_control_tb.sdram_model : at time  327205.0 ns AREF : Auto Refresh
sdram_control_tb.sdram_model : at time  329515.0 ns ACT  : Bank = 2 Row =    0
sdram_control_tb.sdram_model : at time  329545.0 ns WRITE: Bank = 2 Row =    0, Col = 200, Data = 00c8
sdram_control_tb.sdram_model : at time  329555.0 ns WRITE: Bank = 2 Row =    0, Col = 201, Data = 00c9
sdram_control_tb.sdram_model : at time  329565.0 ns WRITE: Bank = 2 Row =    0, Col = 202, Data = 00ca
sdram_control_tb.sdram_model : at time  329575.0 ns WRITE: Bank = 2 Row =    0, Col = 203, Data = 00cb
sdram_control_tb.sdram_model : at time  329585.0 ns WRITE: Bank = 2 Row =    0, Col = 204, Data = 00cc
sdram_control_tb.sdram_model : at time  329595.0 ns WRITE: Bank = 2 Row =    0, Col = 205, Data = 00cd
sdram_control_tb.sdram_model : at time  329605.0 ns WRITE: Bank = 2 Row =    0, Col = 206, Data = 00ce
sdram_control_tb.sdram_model : at time  329615.0 ns WRITE: Bank = 2 Row =    0, Col = 207, Data = 00cf
sdram_control_tb.sdram_model : at time  334525.0 ns ACT  : Bank = 2 Row =    0
sdram_control_tb.sdram_model : at time  334555.0 ns WRITE: Bank = 2 Row =    0, Col = 208, Data = 00d0
sdram_control_tb.sdram_model : at time  334565.0 ns WRITE: Bank = 2 Row =    0, Col = 209, Data = 00d1
sdram_control_tb.sdram_model : at time  334575.0 ns WRITE: Bank = 2 Row =    0, Col = 210, Data = 00d2
sdram_control_tb.sdram_model : at time  334585.0 ns WRITE: Bank = 2 Row =    0, Col = 211, Data = 00d3
sdram_control_tb.sdram_model : at time  334595.0 ns WRITE: Bank = 2 Row =    0, Col = 212, Data = 00d4
sdram_control_tb.sdram_model : at time  334605.0 ns WRITE: Bank = 2 Row =    0, Col = 213, Data = 00d5
sdram_control_tb.sdram_model : at time  334615.0 ns WRITE: Bank = 2 Row =    0, Col = 214, Data = 00d6
sdram_control_tb.sdram_model : at time  334625.0 ns WRITE: Bank = 2 Row =    0, Col = 215, Data = 00d7
sdram_control_tb.sdram_model : at time  339535.0 ns ACT  : Bank = 2 Row =    0
sdram_control_tb.sdram_model : at time  339565.0 ns WRITE: Bank = 2 Row =    0, Col = 216, Data = 00d8
sdram_control_tb.sdram_model : at time  339575.0 ns WRITE: Bank = 2 Row =    0, Col = 217, Data = 00d9
sdram_control_tb.sdram_model : at time  339585.0 ns WRITE: Bank = 2 Row =    0, Col = 218, Data = 00da
sdram_control_tb.sdram_model : at time  339595.0 ns WRITE: Bank = 2 Row =    0, Col = 219, Data = 00db
sdram_control_tb.sdram_model : at time  339605.0 ns WRITE: Bank = 2 Row =    0, Col = 220, Data = 00dc
sdram_control_tb.sdram_model : at time  339615.0 ns WRITE: Bank = 2 Row =    0, Col = 221, Data = 00dd
sdram_control_tb.sdram_model : at time  339625.0 ns WRITE: Bank = 2 Row =    0, Col = 222, Data = 00de
sdram_control_tb.sdram_model : at time  339635.0 ns WRITE: Bank = 2 Row =    0, Col = 223, Data = 00df
sdram_control_tb.sdram_model : at time  342705.0 ns AREF : Auto Refresh
sdram_control_tb.sdram_model : at time  342805.0 ns AREF : Auto Refresh
sdram_control_tb.sdram_model : at time  344545.0 ns ACT  : Bank = 2 Row =    0
sdram_control_tb.sdram_model : at time  344575.0 ns WRITE: Bank = 2 Row =    0, Col = 224, Data = 00e0
sdram_control_tb.sdram_model : at time  344585.0 ns WRITE: Bank = 2 Row =    0, Col = 225, Data = 00e1
sdram_control_tb.sdram_model : at time  344595.0 ns WRITE: Bank = 2 Row =    0, Col = 226, Data = 00e2
